…
# set categorical variables
populationdata$Drug <- factor(populationdata$Drug, ordered=FALSE)
populationdata$attention <- factor(populationdata$attention, ordered=FALSE, levels=label_attention)
populationdata$drug_on <- factor(populationdata$drug_on, ordered=FALSE, levels=label_drug_onoff)
populationdata$unit_class <- factor(populationdata$unit_class, ordered=FALSE, levels=label_unitclass)
populationdata$unit <- factor(populationdata$unit, ordered=FALSE)

# set contrasts to sum (intercept is grand mean, effect-coded contrasts)
populationdata$attention <- C(populationdata$attention, "contr.sum")
populationdata$drug_on <- C(populationdata$drug_on, "contr.sum")
populationdata$unit_class <- C(populationdata$unit_class, "contr.sum")
print(populationdata)
```

    ## # A tibble: 56 x 27
    ##    unit  drug_on  attention  rate    FF   roc      MI   gain gain_log Subject
    ##    <fct> <fct>    <fct>     <dbl> <dbl> <dbl>   <dbl>  <dbl>    <dbl> <chr>  
    ##  1 32    Drug off Attend RF 29.2   2.87 0.797  0.207  0.0650   -2.73  W      
    ##  2 34    Drug off Attend RF 18.2   1.79 0.760  0.197  0.0356   -3.34  W      
    ##  3 40    Drug off Attend RF 27.7   3.10 0.291 -0.112  0.0703   -2.66  W      
    ##  4 46    Drug off Attend RF 32.8   1.61 0.837  0.186  0.0177   -4.04  W      
    ##  5 51    Drug off Attend RF 17.2   4.79 0.737  0.266  0.202    -1.60  W      
    ##  6 52    Drug off Attend RF 13.2   5.61 0.746  0.310  0.314    -1.16  W      
    ##  7 54    Drug off Attend RF 17.7   3.82 0.712  0.200  0.150    -1.90  W      
    ##  8 55    Drug off Attend RF 37.4   3.47 0.562  0.0446 0.0555   -2.89  W      
    ##  9 57    Drug off Attend RF  8.70  2.71 0.605  0.113  0.219    -1.52  W      
    ## 10 58    Drug off Attend RF 12.5   4.74 0.737  0.310  0.407    -0.900 W      
    ## # ... with 46 more rows, and 17 more variables: Task <chr>, Date <date>,
    ## #   Drug <fct>, EjectCurrent <dbl>, Weight <dbl>, peak_to_trough_time <dbl>,
    ## #   unit_class <fct>, EjectCurrent_centered <dbl>, s_stim <dbl>, s_att <dbl>,
    ## #   s_dru <dbl>, s_dir <dbl>, s_att*dru <dbl>, s_att*dir <dbl>,
    ## #   s_dru*dir <dbl>, s_att*dru*dir <dbl>, attention_drug_on <chr>
…
