…
# set categorical variables
populationdata$Drug <- factor(populationdata$Drug, ordered=FALSE)
populationdata$attention <- factor(populationdata$attention, ordered=FALSE, levels=label_attention)
populationdata$drug_on <- factor(populationdata$drug_on, ordered=FALSE, levels=label_drug_onoff)
populationdata$unit_class <- factor(populationdata$unit_class, ordered=FALSE, levels=label_unitclass)
populationdata$unit <- factor(populationdata$unit, ordered=FALSE)

# set contrasts to sum (intercept is grand mean, effect-coded contrasts)
populationdata$attention <- C(populationdata$attention, "contr.sum")
populationdata$drug_on <- C(populationdata$drug_on, "contr.sum")
populationdata$unit_class <- C(populationdata$unit_class, "contr.sum")
print(populationdata)
```

    ## # A tibble: 124 x 27
    ##    unit  drug_on  attention  rate    FF   roc     MI     gain gain_log Subject
    ##    <fct> <fct>    <fct>     <dbl> <dbl> <dbl>  <dbl>    <dbl>    <dbl> <chr>  
    ##  1 2     Drug off Attend RF  8.85  1.43 0.703 0.180  NaN        NaN    W      
    ##  2 5     Drug off Attend RF 29.0   5.24 0.612 0.0881   0.190     -1.66 W      
    ##  3 6     Drug off Attend RF 44.3   7.48 0.731 0.191    0.139     -1.98 W      
    ##  4 7     Drug off Attend RF 24.2   2.60 0.734 0.164    0.0653    -2.73 W      
    ##  5 10    Drug off Attend RF 67     4.37 0.697 0.0858   0.0466    -3.07 W      
    ##  6 11    Drug off Attend RF 11.0   3.43 0.701 0.219    0.247     -1.40 W      
    ##  7 12    Drug off Attend RF  9.4   2.63 0.668 0.167    0.121     -2.11 W      
    ##  8 13    Drug off Attend RF  9.79  1.75 0.722 0.194    0.0717    -2.63 W      
    ##  9 18    Drug off Attend RF 59.7   7.68 0.863 0.313    0.107     -2.23 W      
    ## 10 22    Drug off Attend RF 52.7   4.13 0.784 0.152    0.0600    -2.81 W      
    ## # ... with 114 more rows, and 17 more variables: Task <chr>, Date <date>,
    ## #   Drug <fct>, EjectCurrent <dbl>, Weight <dbl>, peak_to_trough_time <dbl>,
    ## #   unit_class <fct>, EjectCurrent_centered <dbl>, s_stim <dbl>, s_att <dbl>,
    ## #   s_dru <dbl>, s_dir <dbl>, s_att*dru <dbl>, s_att*dir <dbl>,
    ## #   s_dru*dir <dbl>, s_att*dru*dir <dbl>, attention_drug_on <chr>
…
