…
#compute bayes factor
BF <- as_tibble(R2.to.bf(n=n, nPred=n_pred, r2=r2_model))
colnames(BF) <- c("Model1","Model2","BF")

print('R2 values for each model fit:')
print(r2_model)
print(BF)
```

    ## [1] "R2 values for each model fit:"
    ## [1] 0.7252983 0.7503370 0.8011917 0.8017948 0.8181801 0.8181797 0.8340298
    ## [8] 0.8356260
    ## # A tibble: 28 x 3
    ##    Model1 Model2     BF
    ##     <dbl>  <dbl>  <dbl>
    ##  1      1      2  1.08 
    ##  2      1      3 40.1  
    ##  3      1      4  5.05 
    ##  4      1      5  5.58 
    ##  5      1      6  0.787
    ##  6      1      7  1.05 
    ##  7      1      8  0.209
    ##  8      2      3 37.0  
    ##  9      2      4  4.66 
    ## 10      2      5  5.15 
    ## # ... with 18 more rows
