…
#compute bayes factor
BF <- as_tibble(R2.to.bf(n=n, nPred=n_pred, r2=r2_model))
colnames(BF) <- c("Model1","Model2","BF")

print('R2 values for each model fit:')
print(r2_model)
print(BF)
```

    ## [1] "R2 values for each model fit:"
    ## [1] 0.4015809 0.4329399 0.4598252 0.4610174 0.4771532 0.4906155 0.5163542
    ## [8] 0.5178823
    ## # A tibble: 28 x 3
    ##    Model1 Model2      BF
    ##     <dbl>  <dbl>   <dbl>
    ##  1      1      2 0.528  
    ##  2      1      3 0.294  
    ##  3      1      4 0.0573 
    ##  4      1      5 0.0253 
    ##  5      1      6 0.0107 
    ##  6      1      7 0.00899
    ##  7      1      8 0.00245
    ##  8      2      3 0.557  
    ##  9      2      4 0.109  
    ## 10      2      5 0.0478 
    ## # ... with 18 more rows
