…
#compute bayes factor
BF <- as_tibble(R2.to.bf(n=n, nPred=n_pred, r2=r2_model))
colnames(BF) <- c("Model1","Model2","BF")

print('R2 values for each model fit:')
print(r2_model)
print(BF)

## [1] "R2 values for each model fit:"
## [1] 0.8054289 0.8817419 0.9033728 0.9033758 0.9036878 0.9179408 0.9180777
## [8] 0.9183160
## # A tibble: 28 x 3
##    Model1 Model2         BF
##     <dbl>  <dbl>      <dbl>
##  1      1      2  32211.   
##  2      1      3 427205.   
##  3      1      4  35161.   
##  4      1      5   3570.   
##  5      1      6  17524.   
##  6      1      7   1926.   
##  7      1      8    235.   
##  8      2      3     13.3  
##  9      2      4      1.09 
## 10      2      5      0.111
## # ... with 18 more rows
